0000255;EMMECI PUBBLICITA' SNC DI CHAPEL S. E PATTA R.
0000280;IPAS SPA
0000298;SOCIETA' CONCESSIONI INT.LI  SRL
0000340;M.M. di Mariani Alice & C.
0000398;IGP DECAUX  SPA
0000490;CLEAR CHANNEL ITALY OUTDOOR SRL
0000533;CLEAR CHANNEL JOLLY PUBBLICITA' SPA
0000544;SEMAR SRL
0000600;ADRIATICA PUBBLICITA' SRL
0000606;PUBBLIESSE STUDIO SRL UNINOMINALE
0000612;VISIVA GROUP SRL
0000614;PUBLIART PUBBLICITA' DI PUCCIONI L. E A. SAS
0000617;SPONSOR GROUP SRL
0000627;PUBLICITTA' SPA
0000635;GEOPUBBLICITA' SRL
0000638;GAMMA PUBBLICITA' S.N.C.
0000645;PUBBLIDUE SRL
0000648;POINT STUDIO SRL
0000684;PUBBLINEON SNC DI TOMIROTTI M. E S.
0000686;IMPRESS SRL
0000699;CIBRA PUBBLICITA' SRL
0000705;ADV PRINTING SRL
0000737;MEDIA NETWORK DI PAPPADA' VINCENZO
0000742;LEODARI PUBBLICITA' SRL
0000808;STUDIO 58 DI FABBRO CRISTINA & C. SNC
0000817;PUBBLI SYRIA SRL
0000818;BEGNI PUBBLICITA' SRL
0000820;AVIP ITALIA SRL
0000881;GRAZIANI SRL
0000902;GIRARDI PUBBLICITA' GROUP SRL
0000926;D.N.D. PROJECT & SERVICE SRL
0000931;SPAZIO 2000 SRL
0000937;TOSCOGRAF SAS DI L. E M.C.PULZELLI
0000957;SIPEA SRL
0000998;R.D. PUBBLICITA' SRL
0001030;OPS GROUP SRL
0001035;ABBIATI & COMPANY & SAS
0001036;SARILA SRL UNIPERSONALE
0001047;MATTEI & CO. DI MATTEI PAOLO
0001060;BOST GROUP SRL
0001073;COPRES SRL
0001125;MIRA PUBBLICITA' SRL S
